BIO331 – Lab 05: Data Wrangling – Dee Ruttenberg
…
values_to = "rank": Signifies that the values of the original set of columns will be gathered into a new column named rank.

values_drop_na = TRUE: Ensures that any resulting rows containing NA in the rank column are omitted from the billboard2 dataset.

billboard2 <- billboard %>%
  pivot_longer(
    wk1:wk76,
    names_to = "week",
    values_to = "rank",
    values_drop_na = TRUE
  )

billboard2

# A tibble: 5,307 × 5
   artist  track                   date.entered week   rank
   <chr>   <chr>                   <date>       <chr> <dbl>
 1 2 Pac   Baby Don't Cry (Keep... 2000-02-26   wk1      87
 2 2 Pac   Baby Don't Cry (Keep... 2000-02-26   wk2      82
 3 2 Pac   Baby Don't Cry (Keep... 2000-02-26   wk3      72
 4 2 Pac   Baby Don't Cry (Keep... 2000-02-26   wk4      77
 5 2 Pac   Baby Don't Cry (Keep... 2000-02-26   wk5      87
 6 2 Pac   Baby Don't Cry (Keep... 2000-02-26   wk6      94
 7 2 Pac   Baby Don't Cry (Keep... 2000-02-26   wk7      99
 8 2Ge+her The Hardest Part Of ... 2000-09-02   wk1      91
 9 2Ge+her The Hardest Part Of ... 2000-09-02   wk2      87
10 2Ge+her The Hardest Part Of ... 2000-09-02   wk3      92
# ℹ 5,297 more rows
…
date = as.Date(date.entered) + 7 * (week - 1): Calculates a new date column by adding the number of weeks (converted to days) to the date.entered column, allowing tracking of the specific date related to each week”s data.

date.entered = NULL: Removes the original date.entered column after the new date column has been created.

billboard3 <- billboard2 %>%
  mutate(
    week = as.integer(gsub("wk", "", week)),
    # Adding to dates in R adds days!
    date = as.Date(date.entered) + 7 * (week - 1),
    date.entered = NULL
  )

billboard3

# A tibble: 5,307 × 5
   artist  track                    week  rank date      
   <chr>   <chr>                   <int> <dbl> <date>    
 1 2 Pac   Baby Don't Cry (Keep...     1    87 2000-02-26
 2 2 Pac   Baby Don't Cry (Keep...     2    82 2000-03-04
 3 2 Pac   Baby Don't Cry (Keep...     3    72 2000-03-11
 4 2 Pac   Baby Don't Cry (Keep...     4    77 2000-03-18
 5 2 Pac   Baby Don't Cry (Keep...     5    87 2000-03-25
 6 2 Pac   Baby Don't Cry (Keep...     6    94 2000-04-01
 7 2 Pac   Baby Don't Cry (Keep...     7    99 2000-04-08
 8 2Ge+her The Hardest Part Of ...     1    91 2000-09-02
 9 2Ge+her The Hardest Part Of ...     2    87 2000-09-09
10 2Ge+her The Hardest Part Of ...     3    92 2000-09-16
# ℹ 5,297 more rows
…
